{
    "_id": "userid_01",
    "firstName": "Jed",
    "lastName": "Sanchez",
    "email": "jedsanchez127@mail.com",
    "password": "jeds1234567890",
    "isAdmin": true,
    "mobileNumber": "09221231234",
}

{
    "_id": "userid_02",
    "firstName": "Martin",
    "lastName": "Grimares",
    "email": "martin.grimares@mail.com",
    "password": "martin1234567890",
    "isAdmin": false,
    "mobileNumber": "0444444444",
}